{
  "status": 0,
  "data": {
    "films": [
      {
        "filmId": 6075,
        "name": "证明",
        "poster": "https://pic.maizuo.com/usr/movie/6e44246e0208bce82bd4c55515a0c2fe.png",
        "actors": [
          {
            "name": "赵博",
            "role": "导演",
            "avatarAddress": "https://pic.maizuo.com/usr/movie/ce03bac29098b70a73308f84d2466975.jpg"
          },
          {
            "name": "贾冰",
            "role": "局长",
            "avatarAddress": "https://pic.maizuo.com/usr/movie/9db69a519c13e7d47a784834419c9422.jpg"
          },
          {
            "name": "刘之冰",
            "role": "张正军",
            "avatarAddress": "https://pic.maizuo.com/usr/movie/8cf47a4deee04f20c386eebb7e00b9dd.jpg"
          },
          {
            "name": "任帅",
            "role": "袁野",
            "avatarAddress": "https://pic.maizuo.com/usr/movie/cb4a330b2cf85cabd70f53994c90c2f4.jpg"
          },
          {
            "name": "高艺嘉",
            "role": "杨柳",
            "avatarAddress": "https://pic.maizuo.com/usr/movie/5746219d6eec59aee3b2a2dace0f5b68.jpg"
          }
        ],
        "director": "赵博",
        "category": "战争|动作",
        "synopsis": "中共驻上海地下联络员袁野因为潜藏在组织中的内鬼的背叛而失去了同伴和上级，成为无人证明身份的孤岛。为了向组织证明清白，袁野找到了曾在任务中救下的女大学生杨柳，希望杨柳能与自己一同前往延安，证明自己的身份。 一路上，众人遭到了来自特务和日本人的追杀围堵，去往延安的征途险象环生。袁野一次次的利用自己的经验和才智化解危难，保护学生。也让五个青涩的学生在血与火，生与死的历练中认识到了革命的真谛，获得成长和新生。",
        "filmType": {
          "name": "2D",
          "value": 1
        },
        "nation": "中国大陆",
        "language": "",
        "videoId": "",
        "premiereAt": 1662076800,
        "timeType": 3,
        "runtime": 92,
        "item": {
          "name": "2D",
          "type": 1
        },
        "isPresale": false,
        "isSale": false
      },
      {
        "filmId": 6049,
        "name": "世间有她",
        "poster": "https://pic.maizuo.com/usr/movie/ddd98af15ecd1336e87c054d366f9761.jpg",
        "actors": [
          {
            "name": "张艾嘉",
            "role": "导演",
            "avatarAddress": "https://pic.maizuo.com/usr/movie/64f36ae58bc3be8a62f027593548626f.jpg"
          },
          {
            "name": "李少红",
            "role": "导演",
            "avatarAddress": "https://pic.maizuo.com/usr/movie/352766acf69f3abd678bbf4b14598c55.jpg"
          },
          {
            "name": "陈冲",
            "role": "导演",
            "avatarAddress": "https://pic.maizuo.com/usr/movie/82d9ddeff8ca35dc24be8b22f54a9702.jpg"
          },
          {
            "name": "周迅",
            "role": "演员",
            "avatarAddress": "https://pic.maizuo.com/usr/movie/323057d90426543e49f5674d8cd42dc7.jpg"
          },
          {
            "name": "郑秀文",
            "role": "演员",
            "avatarAddress": "https://pic.maizuo.com/usr/movie/7cc73bc9bd7e5b680dc195ed29779af5.jpg"
          }
        ],
        "director": "张艾嘉|李少红|陈冲",
        "category": "剧情|爱情|亲情",
        "synopsis": "电影《世间有她》通过女性视角，讲述了普通人在困境中找寻爱与希望的治愈故事，体现了寻常百姓对生命不寻常的坚守和执着。当突如其来的变故横亘面前，当情侣、夫妻、婆媳等关系开始出现裂纹，每一个选择和行动都折射着人性和人心的力量与温度…….",
        "filmType": {
          "name": "2D",
          "value": 1
        },
        "nation": "中国大陆",
        "language": "",
        "videoId": "",
        "premiereAt": 1662681600,
        "timeType": 3,
        "runtime": 116,
        "item": {
          "name": "2D",
          "type": 1
        },
        "isPresale": true,
        "isSale": false
      },
      {
        "filmId": 6060,
        "name": "还是觉得你最好",
        "poster": "https://pic.maizuo.com/usr/movie/abda2a3b3a3d6734e22ad7430b5e2854.jpg",
        "actors": [
          {
            "name": "陈咏燊",
            "role": "导演",
            "avatarAddress": "https://pic.maizuo.com/usr/movie/1e65d0dd936718196b78aecf5cc8280e.jpg"
          },
          {
            "name": "黄子华",
            "role": "演员",
            "avatarAddress": "https://pic.maizuo.com/usr/movie/8cfe1f737edaff3d09d33dba4d41c2e2.jpg"
          },
          {
            "name": "邓丽欣",
            "role": "演员",
            "avatarAddress": "https://pic.maizuo.com/usr/movie/2591aec0c0dc4ca1c2b437ed21dbd077.jpg"
          },
          {
            "name": "张继聪",
            "role": "演员",
            "avatarAddress": "https://pic.maizuo.com/usr/movie/ba784b5aff253cbb58ad661fdc918090.jpg"
          },
          {
            "name": "王菀之",
            "role": "演员",
            "avatarAddress": "https://pic.maizuo.com/usr/movie/886a1b210a309c4fa7a53f7d21fa082b.jpg"
          }
        ],
        "director": "陈咏燊",
        "category": "喜剧|爱情",
        "synopsis": "大哥的前女友竟成为二哥现女友。自尊心驱使下，大哥答应了新结识的喵喵的追求。三弟和女友的姐弟恋同样面临危机。同一屋檐，3对情侣，4段恋情，每晚的聚餐渐渐演变成饭桌修罗场。面对爱情与亲情，他们将做何选择？9月9日中秋上映。",
        "filmType": {
          "name": "2D",
          "value": 1
        },
        "nation": "中国香港",
        "language": "",
        "videoId": "",
        "premiereAt": 1662681600,
        "timeType": 3,
        "runtime": 116,
        "item": {
          "name": "2D",
          "type": 1
        },
        "isPresale": false,
        "isSale": false
      },
      {
        "filmId": 6064,
        "name": "请别相信她",
        "poster": "https://pic.maizuo.com/usr/movie/95c473e168f144215461cdf145108a93.jpg",
        "actors": [
          {
            "name": "杨沅翰",
            "role": "导演",
            "avatarAddress": "https://pic.maizuo.com/usr/movie/899547979b8bf07f59d09f7b2bd5c411.jpg"
          },
          {
            "name": "章若楠",
            "role": "白娜",
            "avatarAddress": "https://pic.maizuo.com/usr/movie/98e1f0c6bcf9076de5594b77e688db4f.jpg"
          },
          {
            "name": "吴昱翰",
            "role": "方耀东",
            "avatarAddress": "https://pic.maizuo.com/usr/movie/f53162cfd562abbed3f742cbb9c7f212.jpg"
          },
          {
            "name": "吴彦姝",
            "role": "奶奶",
            "avatarAddress": "https://pic.maizuo.com/usr/movie/1d53a604df0f3f1c447313c138617847.jpg"
          },
          {
            "name": "杜晓宇",
            "role": "姑父",
            "avatarAddress": "https://pic.maizuo.com/usr/movie/870a66fab77abac919e09c9dde19de3a.jpg"
          }
        ],
        "director": "杨沅翰",
        "category": "喜剧|爱情",
        "synopsis": "章若楠惊喜搭档吴昱翰，2022年不可错过的喜剧爱情电影！“江湖女骗子”白娜（章若楠 饰）与“小镇憨憨男”方耀东（吴昱翰 饰）在船上不打不相识，谁料冤家路窄白娜阴差阳错竟被当成方耀东媳妇，受到方家人的热情款待。而方耀东为了戳穿白娜谎言、赢回家人信任，与白娜斗智斗勇惹出笑料不断，家庭保卫战一触即发，“女骗子”与“男憨憨”高手过招会如何相爱相杀？",
        "filmType": {
          "name": "2D",
          "value": 1
        },
        "nation": "中国大陆",
        "language": "",
        "videoId": "",
        "premiereAt": 1662681600,
        "timeType": 3,
        "runtime": 106,
        "item": {
          "name": "2D",
          "type": 1
        },
        "isPresale": false,
        "isSale": false
      },
      {
        "filmId": 6074,
        "name": "狼群",
        "poster": "https://pic.maizuo.com/usr/movie/a2ab59d999b72dccba58feec79725b59.jpg",
        "actors": [
          {
            "name": "蒋丛",
            "role": "导演",
            "avatarAddress": "https://pic.maizuo.com/usr/movie/9deba92766bb9b718a2d7de2d6072a8d.jpg"
          },
          {
            "name": "张晋",
            "role": "老关",
            "avatarAddress": "https://pic.maizuo.com/usr/movie/3d8a93f2a0b84bba0d1941da7d00a983.jpg"
          },
          {
            "name": "李治廷",
            "role": "柯童",
            "avatarAddress": "https://pic.maizuo.com/usr/movie/2d35985bb75a5da84374e6709d29d0b1.jpg"
          },
          {
            "name": "蒋璐霞",
            "role": "妖怪",
            "avatarAddress": "https://pic.maizuo.com/usr/movie/40c73e51fe0df1fe2609a37a556c445a.jpg"
          },
          {
            "name": "刘智满",
            "role": "演员",
            "avatarAddress": "https://pic.maizuo.com/usr/movie/4127a8aa91c4f98d4fac1b208320b36c.jpg"
          }
        ],
        "director": "蒋丛",
        "category": "动作|战争",
        "synopsis": "境外恐怖势力掀起能源危机，7名反恐精英秘密守护“地下长城”！老刁（张晋 饰）率领的“狼群小队”长期从事境外安保工作，某次执行任务的过程中，意外发现境外恐怖势力将黑手伸向中国能源命脉！老刁临危受命，率领柯童（李治廷 饰）、妖怪（蒋璐霞 饰）等队员雷霆出击。危机迫在眉睫，“狼群小队”能否化险为夷？",
        "filmType": {
          "name": "2D",
          "value": 1
        },
        "nation": "中国大陆",
        "language": "",
        "videoId": "",
        "premiereAt": 1662681600,
        "timeType": 3,
        "runtime": 105,
        "item": {
          "name": "2D",
          "type": 1
        },
        "isPresale": false,
        "isSale": false
      },
      {
        "filmId": 6065,
        "name": "妈妈！",
        "poster": "https://pic.maizuo.com/usr/movie/99540bd85261e23e6275e5e2cad67ee0.jpg",
        "actors": [
          {
            "name": "杨荔钠",
            "role": "导演",
            "avatarAddress": "https://pic.maizuo.com/usr/movie/0c5874a81c7969c8eb7ddee7b6ff46b3.jpg"
          },
          {
            "name": "吴彦姝",
            "role": "演员",
            "avatarAddress": "https://pic.maizuo.com/usr/movie/1d53a604df0f3f1c447313c138617847.jpg"
          },
          {
            "name": "奚美娟",
            "role": "演员",
            "avatarAddress": "https://pic.maizuo.com/usr/movie/6ca0e9222731c7cd9745b6f987c06688.jpg"
          },
          {
            "name": "文淇",
            "role": "周夏",
            "avatarAddress": "https://pic.maizuo.com/usr/movie/2ac474b3a9255c6ceeb1cb336a1d9d74.jpg"
          },
          {
            "name": "朱时茂",
            "role": "医生",
            "avatarAddress": "https://pic.maizuo.com/usr/movie/cbcd6711d9feb460230f4f1f3dff2f50.jpg"
          }
        ],
        "director": "杨荔钠",
        "category": "剧情|家庭",
        "synopsis": "讲述一位85岁母亲照顾65岁阿尔茨海默病女儿的亲情故事，用细腻的女性视角展现爱与亲情在生命尽头绽放出的无限力量。",
        "filmType": {
          "name": "2D",
          "value": 1
        },
        "nation": "中国大陆",
        "language": "",
        "videoId": "",
        "premiereAt": 1662768000,
        "timeType": 3,
        "runtime": 109,
        "item": {
          "name": "2D",
          "type": 1
        },
        "isPresale": true,
        "isSale": false
      },
      {
        "filmId": 6067,
        "name": "青蛙王国-极限运动",
        "poster": "https://pic.maizuo.com/usr/movie/91f1a384c10908688301e95ca58324d0.jpg",
        "actors": [
          {
            "name": "谭焕臣",
            "role": "导演",
            "avatarAddress": "https://pic.maizuo.com/usr/movie/a2fa587f29022a83503270556cbe8353.jpg"
          },
          {
            "name": "钱卫群",
            "role": "导演",
            "avatarAddress": "https://pic.maizuo.com/usr/movie/1ebdb6037d4b3fd0eaa417644629be4a.jpeg"
          },
          {
            "name": "詹佳",
            "role": "配音演员",
            "avatarAddress": "https://pic.maizuo.com/usr/movie/9d2bdd2f2b3e8794db03c9c3292161d4.jpg"
          },
          {
            "name": "张琦",
            "role": "配音演员",
            "avatarAddress": "https://pic.maizuo.com/usr/movie/ee5b6c4d7dce600c6f174180829ee801.jpg"
          }
        ],
        "director": "谭焕臣|钱卫群",
        "category": "动画|合家欢",
        "synopsis": "为参加蛙国年度极限运动赛，贵公子和小雨点各自组队，公主吉克和一群小土拨鼠加入小雨点的梦之队。然而，成员们不但要克服自身弱点，还受到贵公子一连串阴谋阻扰。历经层层磨难，梦之队以团队力量获得比赛最后胜利。",
        "filmType": {
          "name": "2D",
          "value": 1
        },
        "nation": "中国大陆",
        "language": "",
        "videoId": "",
        "premiereAt": 1662768000,
        "timeType": 3,
        "runtime": 85,
        "item": {
          "name": "2D",
          "type": 1
        },
        "isPresale": false,
        "isSale": false
      },
      {
        "filmId": 6071,
        "name": "陪你在全世界长大",
        "poster": "https://pic.maizuo.com/usr/movie/e36d5ce1f8d65c646fd42e9a8b62ddb3.jpg",
        "actors": [
          {
            "name": "徐承华",
            "role": "导演",
            "avatarAddress": "https://pic.maizuo.com/usr/movie/0e1de449d2d0334e2d15756fa184adab.jpg"
          },
          {
            "name": "辛巴",
            "role": "辛巴",
            "avatarAddress": "https://pic.maizuo.com/usr/movie/9c73b4c08a26298f8f73fc7b9dfbaf97.jpg"
          },
          {
            "name": "徐承华",
            "role": "爸爸",
            "avatarAddress": "https://pic.maizuo.com/usr/movie/0e1de449d2d0334e2d15756fa184adab.jpg"
          },
          {
            "name": "奚志农",
            "role": "摄影师",
            "avatarAddress": "https://pic.maizuo.com/usr/movie/ed12ce335f85ff0eb31bfed13398116c.png"
          },
          {
            "name": "王冰",
            "role": "探险家",
            "avatarAddress": "https://pic.maizuo.com/usr/movie/e1857452532683094abcf8a10fca9ec9.jpg"
          }
        ],
        "director": "徐承华",
        "category": "纪录片|家庭",
        "synopsis": "在“疯狂老爸”的爱与陪伴下，小男孩辛巴从3岁起就先后途经20国到达南北极，留下企鹅作伴、北极熊共舞的美好回忆……年仅8岁时，他又有了去西藏攀登雪山、漂流大河、拍摄珍稀雪豹的梦想，爸爸也希望他“读万卷书”同时去“行万里路”，成长为勇敢善良的男子汉。父子俩从大理启程，踏上了世界第三极的越野之路，可长达8700公里的天路上，无数意料之外的探险挑战，也正等待着他们去经历……",
        "filmType": {
          "name": "2D",
          "value": 1
        },
        "nation": "中国大陆",
        "language": "",
        "videoId": "",
        "premiereAt": 1662768000,
        "timeType": 3,
        "runtime": 98,
        "item": {
          "name": "2D",
          "type": 1
        },
        "isPresale": false,
        "isSale": false
      },
      {
        "filmId": 6073,
        "name": "诗巫风云",
        "poster": "https://pic.maizuo.com/usr/movie/a15dd891a48b52c70c517881afb18f81.jpg",
        "actors": [
          {
            "name": "黄力加",
            "role": "导演",
            "avatarAddress": "https://pic.maizuo.com/usr/movie/b3f933009cae81f908037a9cfcf83fbb.jpg"
          },
          {
            "name": "李诚儒",
            "role": "演员",
            "avatarAddress": "https://pic.maizuo.com/usr/movie/6997a0a6bc57ef24d236923f755a9723.jpg"
          },
          {
            "name": "石文中",
            "role": "演员",
            "avatarAddress": "https://pic.maizuo.com/usr/movie/c08970fe6008eb48e8142f03a4f634d5.jpg"
          },
          {
            "name": "黑妹",
            "role": "演员",
            "avatarAddress": "https://pic.maizuo.com/usr/movie/5633dc45c205911b9d866a07e193bbed.jpg"
          },
          {
            "name": "邓凯匀",
            "role": "演员",
            "avatarAddress": "https://pic.maizuo.com/usr/movie/382fadfcd55f5b5b0c0ac7c751d5b2dc.jpg"
          }
        ],
        "director": "黄力加",
        "category": "剧情|历史",
        "synopsis": "黄乃裳峥嵘半生重归故土，却遭人陷害被冠上令他深恶痛绝的罪名——破坏禁烟运动，众人皆知此案实则为袁世凯政府清除异己之私。海内外各界人士纷纷声援救助，看似已成定局的判决将如何能够扭转......",
        "filmType": {
          "name": "2D",
          "value": 1
        },
        "nation": "中国大陆",
        "language": "",
        "videoId": "",
        "premiereAt": 1663891200,
        "timeType": 3,
        "runtime": 92,
        "item": {
          "name": "2D",
          "type": 1
        },
        "isPresale": false,
        "isSale": false
      },
      {
        "filmId": 3451,
        "name": "阿凡达2",
        "poster": "https://pic.maizuo.com/usr/movie/c5da4eddf824824c21f42aebd4f4120f.jpg",
        "actors": [
          {
            "name": "萨姆·沃辛顿",
            "role": "杰克·萨利",
            "avatarAddress": "https://pic.maizuo.com/usr/100003451/df050071a829cb47d7612e1e4c3f8b37.jpg"
          },
          {
            "name": "佐伊·索尔达娜",
            "role": "奈蒂莉",
            "avatarAddress": "https://pic.maizuo.com/usr/100003451/a457d0e419128720688a6d11712db4b4.jpg"
          },
          {
            "name": "西格妮·韦弗",
            "role": "格蕾丝·奥格斯",
            "avatarAddress": "https://pic.maizuo.com/usr/100003451/2ebc1d29d21743c960de288930921814.jpg"
          },
          {
            "name": "史蒂芬·朗",
            "role": "迈尔斯·夸奇上校",
            "avatarAddress": "https://pic.maizuo.com/usr/100003451/368a975d10ee8e0bf30b5d5906fb6527.jpg"
          }
        ],
        "director": "詹姆斯·卡梅隆",
        "category": "动作|科幻|奇幻|冒险",
        "synopsis": "《阿凡达2》的剧情承接自第一部的5年之后。曾经的地球残疾军人杰克·萨利，如今已经是潘多拉星球纳美族一方部族的族长，并且与爱妻娜塔莉共同育有一对可爱的儿女，日子过得平淡而充实。然而某天，有个部族的兄弟在海岸附近巡逻时遭到利器割喉身亡。通过现场勘查，以及作为前海军陆战队员的敏锐直觉，杰克判断已经有人类的阿凡达混入了部落……",
        "filmType": {
          "name": "2D",
          "value": 1
        },
        "nation": "美国",
        "language": "英语",
        "videoId": "",
        "premiereAt": 1671321600,
        "timeType": 3,
        "runtime": 90,
        "item": {
          "name": "2D",
          "type": 1
        },
        "isPresale": false,
        "isSale": false
      }
    ],
    "total": 10
  },
  "msg": "ok"
}