{
  "status": 0,
  "data": {
    "films": [
      {
        "filmId": 6026,
        "name": "独行月球",
        "poster": "https://pic.maizuo.com/usr/movie/5b5400f760e89d1ae725f6b67b95ba3a.jpg",
        "actors": [
          {
            "name": "张吃鱼",
            "role": "导演",
            "avatarAddress": "https://pic.maizuo.com/usr/movie/16c74301483011bcf22bd609d298edcb.jpg@1246w_1246h_1l_0e"
          },
          {
            "name": "沈腾",
            "role": "独孤月",
            "avatarAddress": "https://pic.maizuo.com/usr/movie/bc8bb78d1e65144fcdf41930c26126e4.jpg@1246w_1246h_1l_0e"
          },
          {
            "name": "马丽",
            "role": "马蓝星",
            "avatarAddress": "https://pic.maizuo.com/usr/movie/ded7c9e2476918b81b4d0aa79ea304a1.jpg@1246w_1246h_1l_0e"
          },
          {
            "name": "常远",
            "role": "朱皮特",
            "avatarAddress": "https://pic.maizuo.com/usr/movie/b44a7a25ce138b32d15fbbbb2a35afc6.jpg@1246w_1246h_1l_0e"
          },
          {
            "name": "李诚儒",
            "role": "孙光阳",
            "avatarAddress": "https://pic.maizuo.com/usr/movie/cfe1dad832a224877481de2e684cd4dd.jpg@1246w_1246h_1l_0e"
          }
        ],
        "director": "张吃鱼",
        "category": "喜剧|科幻",
        "synopsis": "人类为抵御小行星的撞击，拯救地球，在月球部署了月盾计划。陨石提前来袭，全员紧急撤离时，维修工独孤月（沈腾 饰）因为意外，错过了领队马蓝星（马丽 饰）的撤离通知，一个人落在了月球。不料月盾计划失败，独孤月成为了“宇宙最后的人类”，开始了他在月球上破罐子破摔的生活……",
        "filmType": {
          "name": "4D",
          "value": 13
        },
        "nation": "中国大陆",
        "language": "",
        "videoId": "",
        "premiereAt": 1659052800,
        "timeType": 3,
        "runtime": 122,
        "grade": "7.8",
        "item": {
          "name": "4D",
          "type": 13
        },
        "isPresale": true,
        "isSale": false
      },
      {
        "filmId": 6050,
        "name": "新神榜：杨戬",
        "poster": "https://pic.maizuo.com/usr/movie/1ce4633160a172867c415b85e4a1cab3.jpg",
        "actors": [
          {
            "name": "赵霁",
            "role": "导演",
            "avatarAddress": "https://pic.maizuo.com/usr/movie/b8231959d61dd6f06190bfdced3bfc94.jpg"
          },
          {
            "name": "王凯",
            "role": "杨戬",
            "avatarAddress": "https://pic.maizuo.com/usr/movie/43af81c92a6d117fa7afbeef192f8108.jpg"
          },
          {
            "name": "李兰陵",
            "role": "配音演员",
            "avatarAddress": "https://pic.maizuo.com/usr/movie/f0c143068ff42f68a784cbc947b5bc0c.jpg"
          },
          {
            "name": "季冠霖",
            "role": "配音演员",
            "avatarAddress": "https://pic.maizuo.com/usr/movie/425648dbb731e84ac67005d5013849fe.jpg"
          },
          {
            "name": "李立宏",
            "role": "配音演员",
            "avatarAddress": "https://pic.maizuo.com/usr/movie/98a873274e52553b83ace606b111764d.jpg"
          }
        ],
        "director": "赵霁",
        "category": "动画|冒险|动作",
        "synopsis": "商周之战一千五百年后，天界衰落，蒙冤落魄的杨戬以赏银捕手为业谋生。一日，杨戬接受了一位神秘访客的赏银去追捕一位少年，意外发现少年竟是自己的亲外甥沉香。沉香立志要寻回宝莲灯，劈山救母，却将酿成大祸。杨戬踏上追寻沉香并揭开尘封往事的旅程……",
        "filmType": {
          "name": "3D",
          "value": 2
        },
        "nation": "中国大陆",
        "language": "",
        "videoId": "",
        "premiereAt": 1660867200,
        "timeType": 3,
        "runtime": 127,
        "grade": "7.9",
        "item": {
          "name": "3D",
          "type": 2
        },
        "isPresale": true,
        "isSale": false
      },
      {
        "filmId": 6015,
        "name": "明日战记",
        "poster": "https://pic.maizuo.com/usr/movie/2dff84a9ce76d52bb70e26d6a746786b.jpg",
        "actors": [
          {
            "name": "吴炫辉",
            "role": "导演",
            "avatarAddress": "https://pic.maizuo.com/usr/movie/639be3f049696ef40f5b8cfe0d235ed7.jpg@1246w_1246h_1l_0e"
          },
          {
            "name": "古天乐",
            "role": "演员",
            "avatarAddress": "https://pic.maizuo.com/usr/movie/3bc65abc84745301e70eef43e8a7ee7f.jpg@1246w_1246h_1l_0e"
          },
          {
            "name": "刘青云",
            "role": "演员",
            "avatarAddress": "https://pic.maizuo.com/usr/movie/451e8aa4a24c9de35eb8d8f344ee1435.jpg@1246w_1246h_1l_0e"
          },
          {
            "name": "刘嘉玲",
            "role": "演员",
            "avatarAddress": "https://pic.maizuo.com/usr/movie/7c086bdc1c9c120e0b1a97a23c390ab2.jpg@1246w_1246h_1l_0e"
          },
          {
            "name": "谢君豪",
            "role": "演员",
            "avatarAddress": "https://pic.maizuo.com/usr/movie/de98486475ca3afde69a45a85020fe5f.jpg@1246w_1246h_1l_0e"
          }
        ],
        "director": "吴炫辉",
        "category": "动作|科幻|冒险",
        "synopsis": "华语硬核科幻震撼来袭，中国首部机甲动作爽片燃爆今夏！未来世界，地球因环境污染而千疮百孔，人类家园破败萧条。一颗陨石突然撞击地球，并带来杀伤力极强的外星生物，560万人将因此失去生命。人类命运岌岌可危，总指挥李升（张家辉饰）派出以军人泰来（古天乐饰）为首的精英部队前往执行改造计划，部队却突遭暴力攻击，只有泰来和通讯兵光仔（万国鹏饰）幸存。军官谭冰（刘嘉玲饰）坚持执行PlanB，指挥官郑重生（刘青云饰）反对并找来旧友臭鼬（姜皓文饰）前往支援。拯救家园刻不容缓，但在通讯员小绿（吴倩饰）悄悄提醒下，泰来发现了一个足以毁天灭地的邪恶阴谋……",
        "filmType": {
          "name": "2D",
          "value": 1
        },
        "nation": "中国大陆,中国香港",
        "language": "",
        "videoId": "",
        "premiereAt": 1660262400,
        "timeType": 3,
        "runtime": 99,
        "grade": "7.6",
        "item": {
          "name": "2D",
          "type": 1
        },
        "isPresale": true,
        "isSale": false
      },
      {
        "filmId": 6048,
        "name": "小黄人大眼萌：神偷奶爸前传",
        "poster": "https://pic.maizuo.com/usr/movie/cc6af4c0b8ffbc64da4b7996517a1208.jpg",
        "actors": [
          {
            "name": "凯尔·巴尔达",
            "role": "导演",
            "avatarAddress": "https://pic.maizuo.com/usr/movie/6b2dbd4570ace5edb1ae453dc9a47bcb.jpg"
          },
          {
            "name": "布拉德·埃布尔森",
            "role": "联合导演",
            "avatarAddress": "https://pic.maizuo.com/usr/movie/cf77b1c20f3daaa2a768bdfacc3c0e23.jpg"
          },
          {
            "name": "史蒂夫·卡瑞尔",
            "role": "Gru",
            "avatarAddress": "https://pic.maizuo.com/usr/movie/e54a0faa695ee4e2fa3d2de764ce9ed7.jpg"
          },
          {
            "name": "皮埃尔·柯芬",
            "role": "The Minions",
            "avatarAddress": "https://pic.maizuo.com/usr/movie/409cab7bbca3fe6ecee0ab979b16e58e.jpg"
          },
          {
            "name": "艾伦·阿金",
            "role": "Wild Knuckles",
            "avatarAddress": "https://pic.maizuo.com/usr/movie/4b0475c6df981ec03274f9090fc12f65.jpg"
          }
        ],
        "director": "凯尔·巴尔达|布拉德·埃布尔森",
        "category": "喜剧|动画|冒险",
        "synopsis": "讲述一个梦想成为全世界最强超级反派的12岁小男孩的故事。  上世纪七十年代，蓬蓬头和喇叭裤风靡之际，格鲁（史蒂夫·卡瑞尔 配音）在城郊长大。他是超强反派组合“邪恶六天王”的忠实粉丝，想要跟他们一样坏，甚至加入他们。同时，他拥有一帮胡作非为的“得力助手”。凯文、斯图尔特、鲍勃，以及戴着牙套又极其热衷于讨好的新小黄人奥豆，各尽所能，大显身手，与格鲁一起建造首个基地，试验首批武器，并执行首次任务。  当“邪恶六天王”罢黜了他们的首领，传奇战士Wild Knuckles（艾伦·阿金 配音）后，格鲁前来应聘，希望加入组织。他并未顺利如愿，尤其当他发现自己似乎比另外几位还聪明，更成了这些顶级反派们的死敌时，事情就更难办了。逃命途中，格鲁请教了一位意想不到的人，即Wild Knuckles本尊，也明白了即使是大坏蛋，也有需要朋友帮助的时候。",
        "filmType": {
          "name": "2D",
          "value": 1
        },
        "nation": "美国",
        "language": "",
        "videoId": "",
        "premiereAt": 1660867200,
        "timeType": 3,
        "runtime": 90,
        "grade": "7.6",
        "item": {
          "name": "2D",
          "type": 1
        },
        "isPresale": true,
        "isSale": false
      },
      {
        "filmId": 5591,
        "name": "狙击手",
        "poster": "https://pic.maizuo.com/usr/movie/d57bd15062c75e36fc6e23df74d7e1ef.jpg",
        "actors": [
          {
            "name": "张艺谋",
            "role": "导演",
            "avatarAddress": "https://pic.maizuo.com/usr/movie/59857ef5e898298dc244fbce26cce81a.jpg"
          },
          {
            "name": "张末",
            "role": "导演",
            "avatarAddress": "https://pic.maizuo.com/usr/movie/0f6bb44011715fc9ad4e99321cf396ea.jpg"
          },
          {
            "name": "陈永胜",
            "role": "大永",
            "avatarAddress": "https://pic.maizuo.com/usr/movie/d0836d15a8d141d567ca63a7b41cd5be.jpg"
          },
          {
            "name": "章宇",
            "role": "刘文武",
            "avatarAddress": "https://pic.maizuo.com/usr/movie/0c41c7945bb3799b9ea983c748bd7358.jpg"
          },
          {
            "name": "刘奕铁",
            "role": "亮亮",
            "avatarAddress": "https://pic.maizuo.com/usr/movie/462696a745e3db65c89821520fe87dd9.jpg"
          }
        ],
        "director": "张艺谋|张末",
        "category": "剧情|战争|历史",
        "synopsis": "影片根据抗美援朝战争“冷枪冷炮”运动中神枪手群体事迹改编。1952年冬至1953年初，中国人民志愿军与联合国军在朝鲜战场形成僵持，双方发起了低强度的密集狙击战，史称\\\\\"冷枪冷炮运动\\\\\"。在连长（张译 饰）带领下的狙击五班战士枪法过人，成为敌军的心头大患，班长刘文武（章宇 饰）更成为重点狙击对象。为重创狙击五班，敌方调配精英狙击小队，配以最先进的武器装备，更迫使狙击五班战士大永（陈永胜 饰）等人为救同伴进入其设好的险境之地。但正当敌军打响自己如意算盘之时，他们未料到，被他们当作诱饵的侦察兵亮亮（刘奕铁 饰）身上其实隐藏着更大的秘密......",
        "filmType": {
          "name": "4D",
          "value": 13
        },
        "nation": "中国大陆",
        "language": "",
        "videoId": "",
        "premiereAt": 1643673600,
        "timeType": 3,
        "runtime": 96,
        "grade": "7.4",
        "item": {
          "name": "4D",
          "type": 13
        },
        "isPresale": true,
        "isSale": false
      },
      {
        "filmId": 6044,
        "name": "断·桥",
        "poster": "https://pic.maizuo.com/usr/movie/ff84983223ebb08563c07f5838cde9f0.jpg",
        "actors": [
          {
            "name": "李玉",
            "role": "导演",
            "avatarAddress": "https://pic.maizuo.com/usr/movie/8b1a8bc78c1f2a6bf78f84b29db94fa8.jpg@1246w_1246h_1l_0e"
          },
          {
            "name": "马思纯",
            "role": "闻晓雨",
            "avatarAddress": "https://pic.maizuo.com/usr/movie/2a5678cad8b98d76cfba39f4176fc6e3.jpg@1246w_1246h_1l_0e"
          },
          {
            "name": "王俊凯",
            "role": "孟超",
            "avatarAddress": "https://pic.maizuo.com/usr/movie/3ed69ca599801382fcf30d0e65222e73.jpg@1246w_1246h_1l_0e"
          },
          {
            "name": "范伟",
            "role": "朱方正",
            "avatarAddress": "https://pic.maizuo.com/usr/movie/7a417b7413cc8dbeb95c5a5b99422d80.jpg@1246w_1246h_1l_0e"
          },
          {
            "name": "曾美慧孜",
            "role": "演员",
            "avatarAddress": "https://pic.maizuo.com/usr/movie/6b7d82324682d689ae7ec4c4afe33791.jpg@1246w_1246h_1l_0e"
          }
        ],
        "director": "李玉",
        "category": "剧情|犯罪",
        "synopsis": "黄雀市大桥突然垮塌，桥墩中一副被活埋多年的人骨赫然惊现。死者女儿闻晓雨（马思纯 饰）为追查父亲死因，得到一个自称孟超（王俊凯 饰）的男孩协助，并携手走上探寻真相与复仇之路。渐渐地，他们发现，闻晓雨的养父朱方正（范伟 饰）很可能就是杀人凶手，而他背后似乎隐藏着惊天的秘密…",
        "filmType": {
          "name": "2D",
          "value": 1
        },
        "nation": "中国大陆",
        "language": "",
        "videoId": "",
        "premiereAt": 1660348800,
        "timeType": 3,
        "runtime": 113,
        "grade": "7.8",
        "item": {
          "name": "2D",
          "type": 1
        },
        "isPresale": true,
        "isSale": false
      },
      {
        "filmId": 6056,
        "name": "雀斑公主",
        "poster": "https://pic.maizuo.com/usr/movie/a08125f88e07cbd6aae0a651434611af.jpg",
        "actors": [
          {
            "name": "细田守",
            "role": "导演",
            "avatarAddress": "https://pic.maizuo.com/usr/movie/019c85b99c98c08f459e709a5ca0cd22.jpg"
          },
          {
            "name": "雀斑公主",
            "role": "演员",
            "avatarAddress": "https://pic.maizuo.com/usr/movie/175461f256e7b5c0d9669f5003174008.png"
          },
          {
            "name": "中村佳穗",
            "role": " 内藤鈴 / Belle",
            "avatarAddress": "https://pic.maizuo.com/usr/movie/31bc27503deb17df8298b16f60f0be4a.jpg"
          },
          {
            "name": "佐藤健",
            "role": "惠 / 竜",
            "avatarAddress": "https://pic.maizuo.com/usr/movie/219acf873bd3f2a8391b25d67b88d8cf.jpg"
          },
          {
            "name": "成田凌",
            "role": "久武忍",
            "avatarAddress": "https://pic.maizuo.com/usr/movie/018baf7eda1c1065d8c8beeb536df492.jpg"
          }
        ],
        "director": "细田守",
        "category": "动画|奇幻|青春",
        "synopsis": "影片围绕住在高知小村庄的17岁高中女生小铃展开，小铃的妈妈在其小时候就因救被大水困住的小孩而意外过世，从此一直和父亲在一起生活。小时候和妈妈一起唱歌是小铃最喜欢的事情，但自从妈妈过世后，她却无法继续唱歌唱了。小铃与父亲间也逐渐产生隔阂，整个人的生活完全进入封闭世界。这样的情况下，创作歌曲成为小铃生活唯一的动力。一次偶然机会，她以“贝儿”的身份进入全世界拥有超50亿用户的虚拟世界“U”。在“U”的世界里，小铃尽情歌唱，并很快成为“U”里的人气明星。与此同时，充满谜团的龙出现在了她的面前 。",
        "filmType": {
          "name": "2D",
          "value": 1
        },
        "nation": "日本",
        "language": "",
        "videoId": "",
        "premiereAt": 1661472000,
        "timeType": 3,
        "runtime": 122,
        "grade": "7.6",
        "item": {
          "name": "2D",
          "type": 1
        },
        "isPresale": true,
        "isSale": false
      },
      {
        "filmId": 6062,
        "name": "大白鲨之夺命鲨口",
        "poster": "https://pic.maizuo.com/usr/movie/6932466fb7b33938979875ba247ec708.jpg",
        "actors": [
          {
            "name": "马丁•威尔逊",
            "role": "导演",
            "avatarAddress": "https://pic.maizuo.com/usr/movie/45af8cde61706b8d92bc66f6cc413480.jpg"
          },
          {
            "name": "卡特里娜·宝登",
            "role": "Kaz",
            "avatarAddress": "https://pic.maizuo.com/usr/movie/f5879e3750eb350812a31da519fb775a.jpg"
          },
          {
            "name": "阿隆·贾库本科",
            "role": "Charlie",
            "avatarAddress": "https://pic.maizuo.com/usr/movie/7dd56f3f6c216ff9d05e4420269b5678.jpg"
          },
          {
            "name": "金·茨卡科什",
            "role": "Michelle",
            "avatarAddress": "https://pic.maizuo.com/usr/movie/5ff7586eea8bbc9a918f1ee66302bd1b.jpg"
          },
          {
            "name": "塔蒂安娜·马尔贾诺维奇",
            "role": "Tracy",
            "avatarAddress": "https://pic.maizuo.com/usr/movie/134fd03c11352ae4cb4def78cf0e0fe4.jpg"
          }
        ],
        "director": "马丁•威尔逊",
        "category": "惊悚|灾难",
        "synopsis": "“大白鲨”归来，再现“史诗级”夺命惊魂。巨浪翻滚，白鲨突袭，水上飞机猛然坠入海域，机上乘客被困于海底！沉没已久的死亡游轮内诡谲频发，面目全非的尸体、难以言说的怪异，于寂静无声中狂掀深海恐惧。大白鲨骤然出没、张着血盆大口连环撕咬着落水的不速之客，惨烈尖叫让人心惊胆战！幸存者借助脆弱救生艇逃生，却被潜伏在平静水面下的食人鲨群一路尾随，锋利巨齿伺机行动，静待一口口吞下处于下风的落难人类，凡闯入领地者，绝不留活口。《大白鲨之夺命鲨口》致敬经典、再掀狂潮，锥心恐慌一镜到底，人鲨角逐惊魂动魄……一场暴击灵魂的深海逃生大战，一触即发！",
        "filmType": {
          "name": "2D",
          "value": 1
        },
        "nation": "英国,澳大利亚",
        "language": "",
        "videoId": "",
        "premiereAt": 1661472000,
        "timeType": 3,
        "runtime": 91,
        "grade": "7.7",
        "item": {
          "name": "2D",
          "type": 1
        },
        "isPresale": true,
        "isSale": false
      },
      {
        "filmId": 6028,
        "name": "致命记忆之花开双生",
        "poster": "https://pic.maizuo.com/usr/movie/345fd037174e9bb5de070a01568c74c4.jpg",
        "actors": [
          {
            "name": "国玉峰",
            "role": "导演",
            "avatarAddress": "https://pic.maizuo.com/usr/movie/14ad6e8f8cd614e3ea633213fb48a887.jpg@1246w_1246h_1l_0e"
          },
          {
            "name": "卢彩艺",
            "role": "苏依文",
            "avatarAddress": "https://pic.maizuo.com/usr/movie/b1bf734e302cd9c9d331b3d8fb19cf1c.jpg"
          },
          {
            "name": "金俊秀",
            "role": "姜鹏宇",
            "avatarAddress": "https://pic.maizuo.com/usr/movie/6ca31e92bfbe81628e835fae55d99e40.jpg@1246w_1246h_1l_0e"
          },
          {
            "name": "王丽语",
            "role": "苏依然",
            "avatarAddress": "https://pic.maizuo.com/usr/movie/7d356ec0512adc518279ec4d5442420c.png@1246w_1246h_1l_0e"
          },
          {
            "name": "宁浩然",
            "role": "董子轩",
            "avatarAddress": "https://pic.maizuo.com/usr/movie/6d39c7408096e2c92d3864b19f320ecc.jpg@1246w_1246h_1l_0e"
          }
        ],
        "director": "国玉峰",
        "category": "恐怖|惊悚|悬疑",
        "synopsis": "僻静荒凉的山庄酒店，怪事叠出，一群度假的年轻人陷入危险的死亡游戏。莫名出现的红衣小女孩，猛然回头的狰狞怪老头，更有毒蛇成群盘踞，处处让人心惊胆战、不害而栗。狂风暴雨之夜，坠楼女孩发出声声迷离狂啸，悠悠飘荡于冰冷晦暗的诡异空间。然而随着游戏的推进，死亡人数不断增加，当找到失踪者的时候只剩冰冷的尸体。诡异现象不断发生……杀机四伏、恐惧笼罩，神秘真相正待揭晓……",
        "filmType": {
          "name": "2D",
          "value": 1
        },
        "nation": "中国大陆",
        "language": "",
        "videoId": "",
        "premiereAt": 1660262400,
        "timeType": 3,
        "runtime": 87,
        "grade": "7.7",
        "item": {
          "name": "2D",
          "type": 1
        },
        "isPresale": true,
        "isSale": false
      },
      {
        "filmId": 6046,
        "name": "世界上最爱我的人",
        "poster": "https://pic.maizuo.com/usr/movie/677d808f74eef9b7dc4ec221e1973a8f.jpg",
        "actors": [
          {
            "name": "黄岳泰",
            "role": "导演",
            "avatarAddress": "https://pic.maizuo.com/usr/movie/40901221253f99e930113cd5bde9275b.jpg"
          },
          {
            "name": "王千源",
            "role": "丁一鸣",
            "avatarAddress": "https://pic.maizuo.com/usr/movie/3e552517390f3d029ce2fa63ccf209d9.jpg"
          },
          {
            "name": "谭卓",
            "role": "欧立春",
            "avatarAddress": "https://pic.maizuo.com/usr/movie/a52c7f073499fd6045d90a22623e9e88.jpg"
          },
          {
            "name": "黄杨钿甜",
            "role": "江晓鱼",
            "avatarAddress": "https://pic.maizuo.com/usr/movie/19b5b93e91a096093af3fc28fc192d24.jpg"
          },
          {
            "name": "艾米",
            "role": "丁雁",
            "avatarAddress": "https://pic.maizuo.com/usr/movie/e1647918a7515501e236b144a0941757.jpg"
          }
        ],
        "director": "黄岳泰",
        "category": "剧情|犯罪",
        "synopsis": "一次拼尽全力的抢救牵起两段命运的延续。两位花季少女的人生才刚刚开始,却要被死神按下终止键。两个家庭在这命运关头相遇, 现实的残酷和时间的紧迫,成为他们身上背负的沉重枷锁,   一个是为了女儿丁雁（艾米 饰）竭尽全力的父亲（王千源 饰），一个是为了女儿江晓鱼（黄杨钿甜 饰）变卖家产的母亲（谭卓 饰）， 他们不惜付出一切代价也要让自己的女儿活下去。在生死攸关面前，他们能否经得住人性的考验？在与时间抢夺生的希望之时，命运又会将他们带往怎样的深渊……",
        "filmType": {
          "name": "2D",
          "value": 1
        },
        "nation": "中国大陆",
        "language": "",
        "videoId": "",
        "premiereAt": 1661472000,
        "timeType": 3,
        "runtime": 95,
        "grade": "7.8",
        "item": {
          "name": "2D",
          "type": 1
        },
        "isPresale": true,
        "isSale": false
      }
    ],
    "total": 14
  },
  "msg": "ok"
}