{
    "shop_id": "59292822",
    "user_id": "299244686",
    "shop_title": "伊利旗舰店",
    "total_page": "9",
    "shop_Url": "//yili.tmall.com",
    "items": [
        {
            "item_id": 600947939569,
            "title": "中老年奶粉900g*2罐礼盒版送长辈送礼成人粉营养奶粉",
            "img": "//img.alicdn.com/bao/uploaded/i1/299244686/O1CN01hxp2uW1kUEW4hcBrE_!!0-item_pic.jpg",
            "sold": "12",
            "quantity": 0,
            "totalSoldQuantity": 24,
            "url": "//detail.m.tmall.com/item.htm?id=600947939569",
            "price": "184.00",
            "titleUnderIconList": []
        },
        {
            "item_id": 600132648153,
            "title": "伊利 优酸乳果果昔酸奶饮品混合莓味210g*12盒*1整箱牛奶 早餐",
            "img": "//img.alicdn.com/bao/uploaded/i4/299244686/O1CN01cxlGeg1kUEW07X3oe_!!0-item_pic.jpg",
            "sold": "6",
            "quantity": 0,
            "totalSoldQuantity": 10,
            "url": "//detail.m.tmall.com/item.htm?id=600132648153",
            "price": "60.00",
            "titleUnderIconList": []
        },
        {
            "item_id": 600365529697,
            "title": "伊利畅意100%乳酸菌草莓味100ml*30瓶 整箱饮料",
            "img": "//img.alicdn.com/bao/uploaded/i3/299244686/O1CN01XoOhOx1kUEW2t9ohH_!!0-item_pic.jpg",
            "sold": "32",
            "quantity": 0,
            "totalSoldQuantity": 57,
            "url": "//detail.m.tmall.com/item.htm?id=600365529697",
            "price": "54.00",
            "titleUnderIconList": []
        },
        {
            "item_id": 600752639472,
            "title": "伊利畅意100%乳酸菌饮品原味100ml*30瓶 整箱饮料",
            "img": "//img.alicdn.com/bao/uploaded/i2/299244686/O1CN01IZqyPh1kUEW1VlrN0_!!0-item_pic.jpg",
            "sold": "44",
            "quantity": 0,
            "totalSoldQuantity": 103,
            "url": "//detail.m.tmall.com/item.htm?id=600752639472",
            "price": "54.00",
            "titleUnderIconList": []
        },
        {
            "item_id": 600363937509,
            "title": "伊利l笑脸包装舒化高钙无乳糖牛奶220m*12整箱牛奶",
            "img": "//img.alicdn.com/bao/uploaded/i1/299244686/O1CN01QPedJN1kUEW1VMgLU_!!0-item_pic.jpg",
            "sold": "22",
            "quantity": 0,
            "totalSoldQuantity": 57,
            "url": "//detail.m.tmall.com/item.htm?id=600363937509",
            "price": "52.80",
            "titleUnderIconList": []
        },
        {
            "item_id": 599885856348,
            "title": "伊利 无菌砖脱脂纯牛奶整箱250ml*24盒牛奶整箱",
            "img": "//img.alicdn.com/bao/uploaded/i4/299244686/O1CN01Vt92ED1kUEVvg9ha5-299244686.jpg",
            "sold": "19",
            "quantity": 0,
            "totalSoldQuantity": 53,
            "url": "//detail.m.tmall.com/item.htm?id=599885856348",
            "price": "84.00",
            "titleUnderIconList": []
        },
        {
            "item_id": 600099029353,
            "title": "伊利味可滋芝士莓果牛奶饮品240mL*12*2整箱网红奶新老包装交替发",
            "img": "//img.alicdn.com/bao/uploaded/i2/299244686/O1CN013ETNmg1kUEVxW0MyJ_!!0-item_pic.jpg",
            "sold": "6",
            "quantity": 0,
            "totalSoldQuantity": 6,
            "url": "//detail.m.tmall.com/item.htm?id=600099029353",
            "price": "96.00",
            "titleUnderIconList": []
        },
        {
            "item_id": 599911206667,
            "title": "伊利旗舰店安慕希原味希腊酸奶205g*24盒整箱 牛奶整箱早餐",
            "img": "//img.alicdn.com/bao/uploaded/i1/299244686/O1CN01xTz8GJ1kUEW5gRfk7_!!0-item_pic.jpg",
            "sold": "135",
            "quantity": 0,
            "totalSoldQuantity": 234,
            "url": "//detail.m.tmall.com/item.htm?id=599911206667",
            "price": "132.00",
            "titleUnderIconList": []
        },
        {
            "item_id": 599474448908,
            "title": "伊利 优酸乳果粒酸奶缤纷装245g*24盒 整箱牛奶饮品早餐",
            "img": "//img.alicdn.com/bao/uploaded/i4/299244686/O1CN01qrAHar1kUEVrX2Wu0_!!0-item_pic.jpg",
            "sold": "61",
            "quantity": 0,
            "totalSoldQuantity": 94,
            "url": "//detail.m.tmall.com/item.htm?id=599474448908",
            "price": "72.00",
            "titleUnderIconList": []
        },
        {
            "item_id": 600090131598,
            "title": "伊利 畅意100%乳酸菌饮品荔枝红茶330ml*12瓶",
            "img": "//img.alicdn.com/bao/uploaded/i1/299244686/O1CN017sNVx61kUEVq3CiYV_!!0-item_pic.jpg",
            "sold": "38",
            "quantity": 0,
            "totalSoldQuantity": 50,
            "url": "//detail.m.tmall.com/item.htm?id=600090131598",
            "price": "60.00",
            "titleUnderIconList": []
        },
        {
            "item_id": 600090555029,
            "title": "伊利 金典有机纯牛奶250ml*16盒整箱牛奶早餐营养纯奶",
            "img": "//img.alicdn.com/bao/uploaded/i1/299244686/O1CN01WKD0G41kUEVrndceV_!!0-item_pic.jpg",
            "sold": "126",
            "quantity": 0,
            "totalSoldQuantity": 238,
            "url": "//detail.m.tmall.com/item.htm?id=600090555029",
            "price": "102.00",
            "titleUnderIconList": []
        },
        {
            "item_id": 599567505920,
            "title": "伊利安慕希高端畅饮型希腊风味酸奶果肉型橙凤梨味230g*10瓶整箱",
            "img": "//img.alicdn.com/bao/uploaded/i3/299244686/O1CN01Xvttwi1kUEW0hqOJe-299244686.jpg",
            "sold": "61",
            "quantity": 0,
            "totalSoldQuantity": 116,
            "url": "//detail.m.tmall.com/item.htm?id=599567505920",
            "price": "79.20",
            "titleUnderIconList": []
        },
        {
            "item_id": 599768610750,
            "title": "伊利旗舰店安慕希酸奶蓝莓味希腊常温酸奶205g*12盒酸牛奶整箱",
            "img": "//img.alicdn.com/bao/uploaded/i2/299244686/O1CN01eeN0Kp1kUEW3fXosa-299244686.jpg",
            "sold": "372",
            "quantity": 0,
            "totalSoldQuantity": 566,
            "url": "//detail.m.tmall.com/item.htm?id=599768610750",
            "price": "49.50",
            "titleUnderIconList": []
        },
        {
            "item_id": 599573694182,
            "title": "安慕希X奥利奥 夏日心冻美味小蓝盒套组",
            "img": "//img.alicdn.com/bao/uploaded/i3/299244686/O1CN01l0mIHB1kUEVfLknvk_!!0-item_pic.jpg",
            "sold": "72",
            "quantity": 0,
            "totalSoldQuantity": 76,
            "url": "//detail.m.tmall.com/item.htm?id=599573694182",
            "price": "79.90",
            "titleUnderIconList": []
        },
        {
            "item_id": 599754931031,
            "title": "伊利旗舰店 高钙纯牛奶250ml*24盒 整箱牛奶早餐新老包装随机发货",
            "img": "//img.alicdn.com/bao/uploaded/i1/299244686/O1CN01rwtME11kUEVo3KRIF_!!0-item_pic.jpg",
            "sold": "62",
            "quantity": 0,
            "totalSoldQuantity": 80,
            "url": "//detail.m.tmall.com/item.htm?id=599754931031",
            "price": "76.80",
            "titleUnderIconList": []
        },
        {
            "item_id": 599140440169,
            "title": "伊利舒化低脂无乳糖牛奶笑脸包装220ml*12整箱牛奶",
            "img": "//img.alicdn.com/bao/uploaded/i1/299244686/O1CN01i8d9Ju1kUEVnctU5I_!!0-item_pic.jpg",
            "sold": "102",
            "quantity": 0,
            "totalSoldQuantity": 148,
            "url": "//detail.m.tmall.com/item.htm?id=599140440169",
            "price": "49.80",
            "titleUnderIconList": []
        },
        {
            "item_id": 599754183113,
            "title": "伊利旗舰店 安慕希酸奶高端畅饮型230g*10整箱酸奶牛奶营养早餐",
            "img": "//img.alicdn.com/bao/uploaded/i1/299244686/O1CN01m6X85M1kUEW2pZqFL_!!0-item_pic.jpg",
            "sold": "23",
            "quantity": 0,
            "totalSoldQuantity": 30,
            "url": "//detail.m.tmall.com/item.htm?id=599754183113",
            "price": "78.00",
            "titleUnderIconList": []
        },
        {
            "item_id": 599568238477,
            "title": "伊利l笑脸包装舒化高钙无乳糖牛奶220m*12整箱牛奶",
            "img": "//img.alicdn.com/bao/uploaded/i3/299244686/O1CN01E7ZOOw1kUEVl32gAQ_!!0-item_pic.jpg",
            "sold": "56",
            "quantity": 0,
            "totalSoldQuantity": 85,
            "url": "//detail.m.tmall.com/item.htm?id=599568238477",
            "price": "52.80",
            "titleUnderIconList": []
        },
        {
            "item_id": 599567718535,
            "title": "伊利旗舰店 无菌砖纯牛奶250ml*16盒*2箱 整箱牛奶营养早餐",
            "img": "//img.alicdn.com/bao/uploaded/i1/299244686/O1CN013GSatl1kUEVo7WFpU_!!0-item_pic.jpg",
            "sold": "38",
            "quantity": 0,
            "totalSoldQuantity": 42,
            "url": "//detail.m.tmall.com/item.htm?id=599567718535",
            "price": "96.00",
            "titleUnderIconList": []
        },
        {
            "item_id": 599566974583,
            "title": "伊利安慕希高端畅饮型希腊风味酸奶果肉型橙凤梨味230g*10瓶整箱",
            "img": "//img.alicdn.com/bao/uploaded/i4/299244686/O1CN01XNRbi31kUEW3R6anS_!!0-item_pic.jpg",
            "sold": "18",
            "quantity": 0,
            "totalSoldQuantity": 20,
            "url": "//detail.m.tmall.com/item.htm?id=599566974583",
            "price": "88.00",
            "titleUnderIconList": []
        },
        {
            "item_id": 599368097758,
            "title": "伊利 金典有机纯牛奶250ml*16盒整箱牛奶早餐营养纯奶",
            "img": "//img.alicdn.com/bao/uploaded/i2/299244686/O1CN01KwtbRQ1kUEVfEIJWO_!!0-item_pic.jpg",
            "sold": "9",
            "quantity": 0,
            "totalSoldQuantity": 15,
            "url": "//detail.m.tmall.com/item.htm?id=599368097758",
            "price": "102.00",
            "titleUnderIconList": []
        },
        {
            "item_id": 599352930980,
            "title": "伊利 焕醒源能量饮料原味6*250ml",
            "img": "//img.alicdn.com/bao/uploaded/i4/299244686/O1CN01uPeNL51kUEVkoj3gS_!!0-item_pic.jpg",
            "sold": "36",
            "quantity": 0,
            "totalSoldQuantity": 79,
            "url": "//detail.m.tmall.com/item.htm?id=599352930980",
            "price": "36.00",
            "titleUnderIconList": []
        },
        {
            "item_id": 599263522755,
            "title": "味可滋白巧抹茶牛奶饮品主题装240mL*12",
            "img": "//img.alicdn.com/bao/uploaded/i1/299244686/O1CN0112CJiL1kUEW1X3qZD_!!0-item_pic.jpg",
            "sold": "353",
            "quantity": 0,
            "totalSoldQuantity": 385,
            "url": "//detail.m.tmall.com/item.htm?id=599263522755",
            "price": "48.00",
            "titleUnderIconList": []
        },
        {
            "item_id": 599078350404,
            "title": "伊利味可滋芝士莓果牛奶240mL*12盒整箱网红牛奶新老包装交替发",
            "img": "//img.alicdn.com/bao/uploaded/i2/299244686/O1CN015ZTezm1kUEVggeaIn_!!0-item_pic.jpg",
            "sold": "52",
            "quantity": 0,
            "totalSoldQuantity": 100,
            "url": "//detail.m.tmall.com/item.htm?id=599078350404",
            "price": "48.00",
            "titleUnderIconList": []
        }
    ],
    "current_page": "1",
    "page_size": "24",
    "total_results": "193"
}